%YAML 1.1
%TAG !u! tag:unity3d.com,2011:
--- !u!114 &11400000
MonoBehaviour:
  m_ObjectHideFlags: 0
  m_CorrespondingSourceObject: {fileID: 0}
  m_PrefabInstance: {fileID: 0}
  m_PrefabAsset: {fileID: 0}
  m_GameObject: {fileID: 0}
  m_Enabled: 1
  m_EditorHideFlags: 0
  m_Script: {fileID: 11500000, guid: c9bc43e142692db4e92eef81e1903ca4, type: 3}
  m_Name: MapMagicGraph
  m_EditorClassIdentifier: 
  serializedVersion: 0
  guiShowDependent: 0
  guiShowShared: 0
  guiShowExposed: 0
  guiShowDebug: 0
  guiMiniPos: {x: 20, y: 20}
  guiMiniAnchor: {x: 0, y: 0}
  debugName: 
  debugGenerate: 1
  debugGenInfo: 0
  debugGraphBackground: 1
  debugGraphBackColor: 0.5
  debugGraphFps: 1
  drawInSceneView: 0
  serializer200beta:
    serializedData:
    - refId: 0
      type: MapMagic.Nodes.GraphSerializer200Beta+SerializedDataProt, MapMagic, Version=0.0.0.0,
        Culture=neutral, PublicKeyToken=null
      altType: 
      fields:
      - ver
      - generators
      - linkInlets
      - linkOutlets
      - groups
      - seed
      - exposed
      - defaults
      values:
      - t: 255
        v: 1
      - t: 255
        v: 2
      - t: 255
        v: 31
      - t: 255
        v: 32
      - t: 255
        v: 33
      - t: 1
        v: 12345
      - t: 255
        v: 40
      - t: 255
        v: 42
      special: 
      uniObj: {fileID: 0}
    - refId: 1
      type: Den.Tools.SemVer, Den.Tools.Native, Version=0.0.0.0, Culture=neutral,
        PublicKeyToken=null
      altType: 
      fields:
      - major
      - minor
      - prt
      - patch
      - hash
      - summary
      values:
      - t: 4
        v: 2
      - t: 4
        v: 1
      - t: 4
        v: 4
      - t: 4
        v: 15
      - t: 1
        v: 251920642
      - t: 6
        v: 251920642
      special: 
      uniObj: {fileID: 0}
    - refId: 2
      type: MapMagic.Nodes.Generator[], MapMagic, Version=0.0.0.0, Culture=neutral,
        PublicKeyToken=null
      altType: 
      fields: []
      values:
      - t: 255
        v: 3
      - t: 255
        v: 8
      - t: 255
        v: 11
      - t: 255
        v: 15
      special: 
      uniObj: {fileID: 0}
    - refId: 3
      type: MapMagic.Nodes.MatrixGenerators.Noise200, MapMagic, Version=0.0.0.0,
        Culture=neutral, PublicKeyToken=null
      altType: MapMagic.Nodes.Placeholders+InletOutletPlaceholder, MapMagic, Version=0.0.0.0,
        Culture=neutral, PublicKeyToken=null
      fields:
      - type
      - seed
      - intensity
      - size
      - detail
      - turbulence
      - offset
      - enabled
      - id
      - version
      - draftTime
      - mainTime
      - guiPosition
      - guiSize
      - guiPreview
      - guiAdvanced
      - guiDebug
      values:
      - t: 255
        v: 4
      - t: 1
        v: 12345
      - t: 2
        v: 1068289229
      - t: 2
        v: 1128792064
      - t: 2
        v: 1056964608
      - t: 2
        v: 0
      - t: 255
        v: 5
      - t: 3
        v: 1
      - t: 11
        v: 821630954576543748
      - t: 11
        v: 16
      - t: 9
        v: 4612568273594389784
      - t: 9
        v: 4639415451870856793
      - t: 255
        v: 6
      - t: 255
        v: 7
      - t: 3
        v: 0
      - t: 3
        v: 0
      - t: 3
        v: 0
      special: 
      uniObj: {fileID: 0}
    - refId: 4
      type: MapMagic.Nodes.MatrixGenerators.Noise200+Type, MapMagic, Version=0.0.0.0,
        Culture=neutral, PublicKeyToken=null
      altType: 
      fields:
      - value__
      values:
      - t: 1
        v: 2
      special: 
      uniObj: {fileID: 0}
    - refId: 5
      type: Den.Tools.Vector2D, Den.Tools.Native, Version=0.0.0.0, Culture=neutral,
        PublicKeyToken=null
      altType: 
      fields:
      - x
      - z
      values:
      - t: 2
        v: 0
      - t: 2
        v: 0
      special: 
      uniObj: {fileID: 0}
    - refId: 6
      type: UnityEngine.Vector2, UnityEngine.CoreModule, Version=0.0.0.0, Culture=neutral,
        PublicKeyToken=null
      altType: 
      fields:
      - x
      - y
      values:
      - t: 2
        v: 3290195558
      - t: 2
        v: 3269355110
      special: 
      uniObj: {fileID: 0}
    - refId: 7
      type: UnityEngine.Vector2, UnityEngine.CoreModule, Version=0.0.0.0, Culture=neutral,
        PublicKeyToken=null
      altType: 
      fields:
      - x
      - y
      values:
      - t: 2
        v: 1125515264
      - t: 2
        v: 1129906176
      special: 
      uniObj: {fileID: 0}
    - refId: 8
      type: MapMagic.Nodes.MatrixGenerators.Erosion200, MapMagic, Version=0.0.0.0,
        Culture=neutral, PublicKeyToken=null
      altType: MapMagic.Nodes.Placeholders+InletOutletPlaceholder, MapMagic, Version=0.0.0.0,
        Culture=neutral, PublicKeyToken=null
      fields:
      - iterations
      - terrainDurability
      - erosionAmount
      - sedimentAmount
      - fluidityIterations
      - relax
      - enabled
      - id
      - version
      - draftTime
      - mainTime
      - guiPosition
      - guiSize
      - guiPreview
      - guiAdvanced
      - guiDebug
      values:
      - t: 1
        v: 3
      - t: 2
        v: 1063675494
      - t: 2
        v: 1065353216
      - t: 2
        v: 1061158912
      - t: 1
        v: 3
      - t: 2
        v: 0
      - t: 3
        v: 1
      - t: 11
        v: 821630954576543749
      - t: 11
        v: 2
      - t: 9
        v: 4611766632860717836
      - t: 9
        v: 4649637052922383355
      - t: 255
        v: 9
      - t: 255
        v: 10
      - t: 3
        v: 0
      - t: 3
        v: 0
      - t: 3
        v: 0
      special: 
      uniObj: {fileID: 0}
    - refId: 9
      type: UnityEngine.Vector2, UnityEngine.CoreModule, Version=0.0.0.0, Culture=neutral,
        PublicKeyToken=null
      altType: 
      fields:
      - x
      - y
      values:
      - t: 2
        v: 3263954944
      - t: 2
        v: 3267887104
      special: 
      uniObj: {fileID: 0}
    - refId: 10
      type: UnityEngine.Vector2, UnityEngine.CoreModule, Version=0.0.0.0, Culture=neutral,
        PublicKeyToken=null
      altType: 
      fields:
      - x
      - y
      values:
      - t: 2
        v: 1125515264
      - t: 2
        v: 1125974016
      special: 
      uniObj: {fileID: 0}
    - refId: 11
      type: MapMagic.Nodes.MatrixGenerators.HeightOutput200, MapMagic, Version=0.0.0.0,
        Culture=neutral, PublicKeyToken=null
      altType: MapMagic.Nodes.Placeholders+InletOutletPlaceholder, MapMagic, Version=0.0.0.0,
        Culture=neutral, PublicKeyToken=null
      fields:
      - outputLevel
      - guiApplyType
      - enabled
      - id
      - version
      - draftTime
      - mainTime
      - guiPosition
      - guiSize
      - guiPreview
      - guiAdvanced
      - guiDebug
      values:
      - t: 255
        v: 12
      - t: 3
        v: 0
      - t: 3
        v: 1
      - t: 11
        v: 821630954576543750
      - t: 11
        v: 1
      - t: 9
        v: 4583352972451674640
      - t: 9
        v: 4585305733250102487
      - t: 255
        v: 13
      - t: 255
        v: 14
      - t: 3
        v: 0
      - t: 3
        v: 0
      - t: 3
        v: 0
      special: 
      uniObj: {fileID: 0}
    - refId: 12
      type: MapMagic.Nodes.OutputLevel, MapMagic, Version=0.0.0.0, Culture=neutral,
        PublicKeyToken=null
      altType: 
      fields:
      - value__
      values:
      - t: 1
        v: 3
      special: 
      uniObj: {fileID: 0}
    - refId: 13
      type: UnityEngine.Vector2, UnityEngine.CoreModule, Version=0.0.0.0, Culture=neutral,
        PublicKeyToken=null
      altType: 
      fields:
      - x
      - y
      values:
      - t: 2
        v: 1124204544
      - t: 2
        v: 3267887104
      special: 
      uniObj: {fileID: 0}
    - refId: 14
      type: UnityEngine.Vector2, UnityEngine.CoreModule, Version=0.0.0.0, Culture=neutral,
        PublicKeyToken=null
      altType: 
      fields:
      - x
      - y
      values:
      - t: 2
        v: 1125515264
      - t: 2
        v: 1121845248
      special: 
      uniObj: {fileID: 0}
    - refId: 15
      type: MapMagic.Nodes.MatrixGenerators.Curve200, MapMagic, Version=0.0.0.0,
        Culture=neutral, PublicKeyToken=null
      altType: MapMagic.Nodes.Placeholders+InletOutletPlaceholder, MapMagic, Version=0.0.0.0,
        Culture=neutral, PublicKeyToken=null
      fields:
      - curve
      - enabled
      - id
      - version
      - draftTime
      - mainTime
      - guiPosition
      - guiSize
      - guiPreview
      - guiAdvanced
      - guiDebug
      values:
      - t: 255
        v: 16
      - t: 3
        v: 1
      - t: 11
        v: 837932313969950727
      - t: 11
        v: 691
      - t: 9
        v: 4596107166596387884
      - t: 9
        v: 4626729589295177269
      - t: 255
        v: 29
      - t: 255
        v: 30
      - t: 3
        v: 0
      - t: 3
        v: 0
      - t: 3
        v: 0
      special: 
      uniObj: {fileID: 0}
    - refId: 16
      type: Den.Tools.Curve, Den.Tools.Unity, Version=0.0.0.0, Culture=neutral, PublicKeyToken=null
      altType: 
      fields:
      - points
      - lut
      values:
      - t: 255
        v: 17
      - t: 255
        v: 28
      special: 
      uniObj: {fileID: 0}
    - refId: 17
      type: Den.Tools.Curve+Node[], Den.Tools.Unity, Version=0.0.0.0, Culture=neutral,
        PublicKeyToken=null
      altType: 
      fields: []
      values:
      - t: 255
        v: 18
      - t: 255
        v: 20
      - t: 255
        v: 22
      - t: 255
        v: 24
      - t: 255
        v: 26
      special: 
      uniObj: {fileID: 0}
    - refId: 18
      type: Den.Tools.Curve+Node, Den.Tools.Unity, Version=0.0.0.0, Culture=neutral,
        PublicKeyToken=null
      altType: 
      fields:
      - pos
      - inTangent
      - outTangent
      - linear
      values:
      - t: 255
        v: 19
      - t: 2
        v: 0
      - t: 2
        v: 3146607211
      - t: 3
        v: 1
      special: 
      uniObj: {fileID: 0}
    - refId: 19
      type: UnityEngine.Vector2, UnityEngine.CoreModule, Version=0.0.0.0, Culture=neutral,
        PublicKeyToken=null
      altType: 
      fields:
      - x
      - y
      values:
      - t: 2
        v: 0
      - t: 2
        v: 0
      special: 
      uniObj: {fileID: 0}
    - refId: 20
      type: Den.Tools.Curve+Node, Den.Tools.Unity, Version=0.0.0.0, Culture=neutral,
        PublicKeyToken=null
      altType: 
      fields:
      - pos
      - inTangent
      - outTangent
      - linear
      values:
      - t: 255
        v: 21
      - t: 2
        v: 1043175234
      - t: 2
        v: 1043175234
      - t: 3
        v: 0
      special: 
      uniObj: {fileID: 0}
    - refId: 21
      type: UnityEngine.Vector2, UnityEngine.CoreModule, Version=0.0.0.0, Culture=neutral,
        PublicKeyToken=null
      altType: 
      fields:
      - x
      - y
      values:
      - t: 2
        v: 1053604967
      - t: 2
        v: 1023888259
      special: 
      uniObj: {fileID: 0}
    - refId: 22
      type: Den.Tools.Curve+Node, Den.Tools.Unity, Version=0.0.0.0, Culture=neutral,
        PublicKeyToken=null
      altType: 
      fields:
      - pos
      - inTangent
      - outTangent
      - linear
      values:
      - t: 255
        v: 23
      - t: 2
        v: 1061832266
      - t: 2
        v: 1061832266
      - t: 3
        v: 0
      special: 
      uniObj: {fileID: 0}
    - refId: 23
      type: UnityEngine.Vector2, UnityEngine.CoreModule, Version=0.0.0.0, Culture=neutral,
        PublicKeyToken=null
      altType: 
      fields:
      - x
      - y
      values:
      - t: 2
        v: 1060221919
      - t: 2
        v: 1037516255
      special: 
      uniObj: {fileID: 0}
    - refId: 24
      type: Den.Tools.Curve+Node, Den.Tools.Unity, Version=0.0.0.0, Culture=neutral,
        PublicKeyToken=null
      altType: 
      fields:
      - pos
      - inTangent
      - outTangent
      - linear
      values:
      - t: 255
        v: 25
      - t: 2
        v: 1078809305
      - t: 2
        v: 1078809305
      - t: 3
        v: 0
      special: 
      uniObj: {fileID: 0}
    - refId: 25
      type: UnityEngine.Vector2, UnityEngine.CoreModule, Version=0.0.0.0, Culture=neutral,
        PublicKeyToken=null
      altType: 
      fields:
      - x
      - y
      values:
      - t: 2
        v: 1063546924
      - t: 2
        v: 1052782113
      special: 
      uniObj: {fileID: 0}
    - refId: 26
      type: Den.Tools.Curve+Node, Den.Tools.Unity, Version=0.0.0.0, Culture=neutral,
        PublicKeyToken=null
      altType: 
      fields:
      - pos
      - inTangent
      - outTangent
      - linear
      values:
      - t: 255
        v: 27
      - t: 2
        v: 1094120060
      - t: 2
        v: 0
      - t: 3
        v: 1
      special: 
      uniObj: {fileID: 0}
    - refId: 27
      type: UnityEngine.Vector2, UnityEngine.CoreModule, Version=0.0.0.0, Culture=neutral,
        PublicKeyToken=null
      altType: 
      fields:
      - x
      - y
      values:
      - t: 2
        v: 1065353216
      - t: 2
        v: 1065353216
      special: 
      uniObj: {fileID: 0}
    - refId: 28
      type: System.Single[], mscorlib, Version=4.0.0.0, Culture=neutral, PublicKeyToken=b77a5c561934e089
      altType: 
      fields: []
      values:
      - t: 2
        v: 0
      - t: 2
        v: 3076774800
      - t: 2
        v: 3081487963
      - t: 2
        v: 3081603510
      - t: 2
        v: 3077468080
      - t: 2
        v: 3045919867
      - t: 2
        v: 933079924
      - t: 2
        v: 943595128
      - t: 2
        v: 950319345
      - t: 2
        v: 955803624
      - t: 2
        v: 959254037
      - t: 2
        v: 962915046
      - t: 2
        v: 965862694
      - t: 2
        v: 968152631
      - t: 2
        v: 970672273
      - t: 2
        v: 973250084
      - t: 2
        v: 974739622
      - t: 2
        v: 976344023
      - t: 2
        v: 978063275
      - t: 2
        v: 979897386
      - t: 2
        v: 981656746
      - t: 2
        v: 982688662
      - t: 2
        v: 983778001
      - t: 2
        v: 984924777
      - t: 2
        v: 986128973
      - t: 2
        v: 987390602
      - t: 2
        v: 988709661
      - t: 2
        v: 989970946
      - t: 2
        v: 990687901
      - t: 2
        v: 991433575
      - t: 2
        v: 992207963
      - t: 2
        v: 993011065
      - t: 2
        v: 993842883
      - t: 2
        v: 994703413
      - t: 2
        v: 995592660
      - t: 2
        v: 996510611
      - t: 2
        v: 997457285
      - t: 2
        v: 998338512
      - t: 2
        v: 998840564
      - t: 2
        v: 999356974
      - t: 2
        v: 999887739
      - t: 2
        v: 1000432861
      - t: 2
        v: 1000992342
      - t: 2
        v: 1001566178
      - t: 2
        v: 1002154371
      - t: 2
        v: 1002756926
      - t: 2
        v: 1003373833
      - t: 2
        v: 1004005097
      - t: 2
        v: 1004650721
      - t: 2
        v: 1005310700
      - t: 2
        v: 1005985037
      - t: 2
        v: 1006653346
      - t: 2
        v: 1007004872
      - t: 2
        v: 1007363577
      - t: 2
        v: 1007729460
      - t: 2
        v: 1008102521
      - t: 2
        v: 1008482762
      - t: 2
        v: 1008870181
      - t: 2
        v: 1009264778
      - t: 2
        v: 1009666557
      - t: 2
        v: 1010075508
      - t: 2
        v: 1010491645
      - t: 2
        v: 1010914954
      - t: 2
        v: 1011345447
      - t: 2
        v: 1011783119
      - t: 2
        v: 1012227965
      - t: 2
        v: 1012679993
      - t: 2
        v: 1013139198
      - t: 2
        v: 1013605582
      - t: 2
        v: 1014079140
      - t: 2
        v: 1014559882
      - t: 2
        v: 1015034684
      - t: 2
        v: 1015282234
      - t: 2
        v: 1015533372
      - t: 2
        v: 1015788100
      - t: 2
        v: 1016046417
      - t: 2
        v: 1016308324
      - t: 2
        v: 1016573819
      - t: 2
        v: 1016842903
      - t: 2
        v: 1017115578
      - t: 2
        v: 1017391841
      - t: 2
        v: 1017671694
      - t: 2
        v: 1017955136
      - t: 2
        v: 1018242168
      - t: 2
        v: 1018532789
      - t: 2
        v: 1018826999
      - t: 2
        v: 1019124798
      - t: 2
        v: 1019426187
      - t: 2
        v: 1019731165
      - t: 2
        v: 1020039732
      - t: 2
        v: 1020351888
      - t: 2
        v: 1020667633
      - t: 2
        v: 1020986969
      - t: 2
        v: 1021309893
      - t: 2
        v: 1021636406
      - t: 2
        v: 1021966507
      - t: 2
        v: 1022300201
      - t: 2
        v: 1022637481
      - t: 2
        v: 1022978353
      - t: 2
        v: 1023322812
      - t: 2
        v: 1023540519
      - t: 2
        v: 1023716339
      - t: 2
        v: 1023893946
      - t: 2
        v: 1024066610
      - t: 2
        v: 1024228750
      - t: 2
        v: 1024380892
      - t: 2
        v: 1024523564
      - t: 2
        v: 1024657294
      - t: 2
        v: 1024782607
      - t: 2
        v: 1024900031
      - t: 2
        v: 1025010093
      - t: 2
        v: 1025113321
      - t: 2
        v: 1025210240
      - t: 2
        v: 1025301379
      - t: 2
        v: 1025387264
      - t: 2
        v: 1025468421
      - t: 2
        v: 1025545379
      - t: 2
        v: 1025618664
      - t: 2
        v: 1025688804
      - t: 2
        v: 1025756325
      - t: 2
        v: 1025821754
      - t: 2
        v: 1025885618
      - t: 2
        v: 1025948445
      - t: 2
        v: 1026010761
      - t: 2
        v: 1026073094
      - t: 2
        v: 1026135970
      - t: 2
        v: 1026199916
      - t: 2
        v: 1026265460
      - t: 2
        v: 1026333129
      - t: 2
        v: 1026403449
      - t: 2
        v: 1026476947
      - t: 2
        v: 1026554151
      - t: 2
        v: 1026635588
      - t: 2
        v: 1026721784
      - t: 2
        v: 1026813267
      - t: 2
        v: 1026910564
      - t: 2
        v: 1027014201
      - t: 2
        v: 1027124706
      - t: 2
        v: 1027242606
      - t: 2
        v: 1027368427
      - t: 2
        v: 1027502697
      - t: 2
        v: 1027645943
      - t: 2
        v: 1027798693
      - t: 2
        v: 1027961471
      - t: 2
        v: 1028134807
      - t: 2
        v: 1028319226
      - t: 2
        v: 1028515255
      - t: 2
        v: 1028723424
      - t: 2
        v: 1028944257
      - t: 2
        v: 1029178283
      - t: 2
        v: 1029426027
      - t: 2
        v: 1029688021
      - t: 2
        v: 1029964784
      - t: 2
        v: 1030256847
      - t: 2
        v: 1030564740
      - t: 2
        v: 1030888985
      - t: 2
        v: 1031230110
      - t: 2
        v: 1031588645
      - t: 2
        v: 1031881949
      - t: 2
        v: 1032079415
      - t: 2
        v: 1032286377
      - t: 2
        v: 1032503096
      - t: 2
        v: 1032729835
      - t: 2
        v: 1032966861
      - t: 2
        v: 1033214436
      - t: 2
        v: 1033472823
      - t: 2
        v: 1033742285
      - t: 2
        v: 1034023087
      - t: 2
        v: 1034315493
      - t: 2
        v: 1034619761
      - t: 2
        v: 1034936162
      - t: 2
        v: 1035264956
      - t: 2
        v: 1035606407
      - t: 2
        v: 1035960779
      - t: 2
        v: 1036328334
      - t: 2
        v: 1036709335
      - t: 2
        v: 1037104047
      - t: 2
        v: 1037512734
      - t: 2
        v: 1037921730
      - t: 2
        v: 1038317755
      - t: 2
        v: 1038702380
      - t: 2
        v: 1039077177
      - t: 2
        v: 1039443718
      - t: 2
        v: 1039803575
      - t: 2
        v: 1040158317
      - t: 2
        v: 1040348455
      - t: 2
        v: 1040523071
      - t: 2
        v: 1040697488
      - t: 2
        v: 1040872491
      - t: 2
        v: 1041048868
      - t: 2
        v: 1041227403
      - t: 2
        v: 1041408881
      - t: 2
        v: 1041594091
      - t: 2
        v: 1041783815
      - t: 2
        v: 1041978841
      - t: 2
        v: 1042179955
      - t: 2
        v: 1042387942
      - t: 2
        v: 1042603589
      - t: 2
        v: 1042827680
      - t: 2
        v: 1043061003
      - t: 2
        v: 1043304342
      - t: 2
        v: 1043558483
      - t: 2
        v: 1043824213
      - t: 2
        v: 1044102316
      - t: 2
        v: 1044393581
      - t: 2
        v: 1044698790
      - t: 2
        v: 1045018731
      - t: 2
        v: 1045354190
      - t: 2
        v: 1045705952
      - t: 2
        v: 1046074802
      - t: 2
        v: 1046461529
      - t: 2
        v: 1046866914
      - t: 2
        v: 1047291747
      - t: 2
        v: 1047736813
      - t: 2
        v: 1048202897
      - t: 2
        v: 1048633393
      - t: 2
        v: 1048888631
      - t: 2
        v: 1049155558
      - t: 2
        v: 1049434565
      - t: 2
        v: 1049726047
      - t: 2
        v: 1050030394
      - t: 2
        v: 1050348001
      - t: 2
        v: 1050679260
      - t: 2
        v: 1051024564
      - t: 2
        v: 1051384307
      - t: 2
        v: 1051758881
      - t: 2
        v: 1052148680
      - t: 2
        v: 1052554094
      - t: 2
        v: 1052973450
      - t: 2
        v: 1053393114
      - t: 2
        v: 1053813140
      - t: 2
        v: 1054236712
      - t: 2
        v: 1054667013
      - t: 2
        v: 1055107226
      - t: 2
        v: 1055560534
      - t: 2
        v: 1056030118
      - t: 2
        v: 1056519163
      - t: 2
        v: 1056997730
      - t: 2
        v: 1057266488
      - t: 2
        v: 1057549751
      - t: 2
        v: 1057849109
      - t: 2
        v: 1058166156
      - t: 2
        v: 1058502481
      - t: 2
        v: 1058859676
      - t: 2
        v: 1059239333
      - t: 2
        v: 1059643044
      - t: 2
        v: 1060072400
      - t: 2
        v: 1060528993
      - t: 2
        v: 1061014413
      - t: 2
        v: 1061530253
      - t: 2
        v: 1062078103
      - t: 2
        v: 1062659555
      - t: 2
        v: 1063276202
      - t: 2
        v: 1063929633
      - t: 2
        v: 1064621440
      - t: 2
        v: 1065353216
      special: 
      uniObj: {fileID: 0}
    - refId: 29
      type: UnityEngine.Vector2, UnityEngine.CoreModule, Version=0.0.0.0, Culture=neutral,
        PublicKeyToken=null
      altType: 
      fields:
      - x
      - y
      values:
      - t: 2
        v: 3284395052
      - t: 2
        v: 3274497691
      special: 
      uniObj: {fileID: 0}
    - refId: 30
      type: UnityEngine.Vector2, UnityEngine.CoreModule, Version=0.0.0.0, Culture=neutral,
        PublicKeyToken=null
      altType: 
      fields:
      - x
      - y
      values:
      - t: 2
        v: 1125515264
      - t: 2
        v: 1129250816
      special: 
      uniObj: {fileID: 0}
    - refId: 31
      type: MapMagic.Nodes.IInlet`1[[System.Object, mscorlib, Version=4.0.0.0, Culture=neutral,
        PublicKeyToken=b77a5c561934e089]][], MapMagic, Version=0.0.0.0, Culture=neutral,
        PublicKeyToken=null
      altType: 
      fields: []
      values:
      - t: 255
        v: 8
      - t: 255
        v: 11
      - t: 255
        v: 15
      special: 
      uniObj: {fileID: 0}
    - refId: 32
      type: MapMagic.Nodes.IOutlet`1[[System.Object, mscorlib, Version=4.0.0.0, Culture=neutral,
        PublicKeyToken=b77a5c561934e089]][], MapMagic, Version=0.0.0.0, Culture=neutral,
        PublicKeyToken=null
      altType: 
      fields: []
      values:
      - t: 255
        v: 15
      - t: 255
        v: 8
      - t: 255
        v: 3
      special: 
      uniObj: {fileID: 0}
    - refId: 33
      type: MapMagic.Nodes.Auxiliary[], MapMagic, Version=0.0.0.0, Culture=neutral,
        PublicKeyToken=null
      altType: 
      fields: []
      values:
      - t: 255
        v: 34
      special: 
      uniObj: {fileID: 0}
    - refId: 34
      type: MapMagic.Nodes.Group, MapMagic, Version=0.0.0.0, Culture=neutral, PublicKeyToken=null
      altType: 
      fields:
      - name
      - comment
      - color
      - pinned
      - guiPos
      - guiSize
      values:
      - t: 255
        v: 35
      - t: 255
        v: 36
      - t: 255
        v: 37
      - t: 3
        v: 0
      - t: 255
        v: 38
      - t: 255
        v: 39
      special: 
      uniObj: {fileID: 0}
    - refId: 35
      type: System.String, mscorlib, Version=4.0.0.0, Culture=neutral, PublicKeyToken=b77a5c561934e089
      altType: 
      fields: []
      values: []
      special: Group
      uniObj: {fileID: 0}
    - refId: 36
      type: System.String, mscorlib, Version=4.0.0.0, Culture=neutral, PublicKeyToken=b77a5c561934e089
      altType: 
      fields: []
      values: []
      special: Drag in generators to group them
      uniObj: {fileID: 0}
    - refId: 37
      type: UnityEngine.Color, UnityEngine.CoreModule, Version=0.0.0.0, Culture=neutral,
        PublicKeyToken=null
      altType: 
      fields:
      - r
      - g
      - b
      - a
      values:
      - t: 2
        v: 1059061760
      - t: 2
        v: 1059061760
      - t: 2
        v: 1059061760
      - t: 2
        v: 1065353216
      special: 
      uniObj: {fileID: 0}
    - refId: 38
      type: UnityEngine.Vector2, UnityEngine.CoreModule, Version=0.0.0.0, Culture=neutral,
        PublicKeyToken=null
      altType: 
      fields:
      - x
      - y
      values:
      - t: 2
        v: 1138866459
      - t: 2
        v: 1091916176
      special: 
      uniObj: {fileID: 0}
    - refId: 39
      type: UnityEngine.Vector2, UnityEngine.CoreModule, Version=0.0.0.0, Culture=neutral,
        PublicKeyToken=null
      altType: 
      fields:
      - x
      - y
      values:
      - t: 2
        v: 1134554938
      - t: 2
        v: 1131261126
      special: 
      uniObj: {fileID: 0}
    - refId: 40
      type: MapMagic.Expose.Exposed, MapMagic, Version=0.0.0.0, Culture=neutral,
        PublicKeyToken=null
      altType: 
      fields:
      - serEntries
      values:
      - t: 255
        v: 41
      special: 
      uniObj: {fileID: 0}
    - refId: 41
      type: MapMagic.Expose.Exposed+Entry[], MapMagic, Version=0.0.0.0, Culture=neutral,
        PublicKeyToken=null
      altType: 
      fields: []
      values: []
      special: 
      uniObj: {fileID: 0}
    - refId: 42
      type: MapMagic.Expose.Override, MapMagic, Version=0.0.0.0, Culture=neutral,
        PublicKeyToken=null
      altType: 
      fields:
      - serializedDict
      - unityObjects
      values:
      - t: 255
        v: 43
      - t: 255
        v: 44
      special: 
      uniObj: {fileID: 0}
    - refId: 43
      type: System.String, mscorlib, Version=4.0.0.0, Culture=neutral, PublicKeyToken=b77a5c561934e089
      altType: 
      fields: []
      values: []
      special: "< \"root\", \"Den.Tools.DictionaryOrdered`2[[System.String, mscorlib],[MapMagic.Expose.Override+ObjType,
        MapMagic]], Den.Tools.Unity\", id1,\r\n  < \"dict\", \"System.Collections.Generic.Dictionary`2[[System.String,
        mscorlib],[MapMagic.Expose.Override+ObjType, MapMagic]], mscorlib\", id2,\r\n   
        < \"_buckets\", System.Object, id0, null >,\r\n    < \"_entries\", System.Object,
        id0, null >,\r\n    < \"_count\", System.Int32, id0, 0 >,\r\n    < \"_comparer\",
        System.Object, id0, null >,\r\n    < \"_version\", System.Int32, id0, 0 >
        >,\r\n  < \"order\", \"System.Collections.Generic.List`1[[System.String,
        mscorlib]], mscorlib\", id3,\r\n    < \"_items\", \"System.String[], mscorlib\",
        id4 >,\r\n    < \"_size\", System.Int32, id0, 0 >,\r\n    < \"_version\",
        System.Int32, id0, 0 > > >"
      uniObj: {fileID: 0}
    - refId: 44
      type: UnityEngine.Object[], UnityEngine.CoreModule, Version=0.0.0.0, Culture=neutral,
        PublicKeyToken=null
      altType: 
      fields: []
      values: []
      special: 
      uniObj: {fileID: 0}
